^C:\USERS\USER\GIT\TERMPROJECTVS\TERMPROJECT\DATE.CPP|C:\USERS\USER\GIT\TERMPROJECTVS\TERMPROJECT\MAIN.CPP|C:\USERS\USER\GIT\TERMPROJECTVS\TERMPROJECT\MOVIE.CPP|C:\USERS\USER\GIT\TERMPROJECTVS\TERMPROJECT\MOVIECONTROLLER.CPP|C:\USERS\USER\GIT\TERMPROJECTVS\TERMPROJECT\MOVIEDECODER.CPP|C:\USERS\USER\GIT\TERMPROJECTVS\TERMPROJECT\VIEWCONTROLLER.CPP
C:\USERS\USER\GIT\TERMPROJECTVS\TERMPROJECT\DEBUG\DATE.OBJ
C:\USERS\USER\GIT\TERMPROJECTVS\TERMPROJECT\DEBUG\MAIN.OBJ
C:\USERS\USER\GIT\TERMPROJECTVS\TERMPROJECT\DEBUG\MOVIE.OBJ
C:\USERS\USER\GIT\TERMPROJECTVS\TERMPROJECT\DEBUG\MOVIECONTROLLER.OBJ
C:\USERS\USER\GIT\TERMPROJECTVS\TERMPROJECT\DEBUG\MOVIEDECODER.OBJ
C:\USERS\USER\GIT\TERMPROJECTVS\TERMPROJECT\DEBUG\VIEWCONTROLLER.OBJ
^C:\USERS\USER\GIT\TERMPROJECTVS\TERMPROJECT\DATE.CPP
C:\USERS\USER\GIT\TERMPROJECTVS\TERMPROJECT\DEBUG\VC110.PDB
^C:\USERS\USER\GIT\TERMPROJECTVS\TERMPROJECT\MAIN.CPP
C:\USERS\USER\GIT\TERMPROJECTVS\TERMPROJECT\DEBUG\VC110.PDB
^C:\USERS\USER\GIT\TERMPROJECTVS\TERMPROJECT\MOVIE.CPP
C:\USERS\USER\GIT\TERMPROJECTVS\TERMPROJECT\DEBUG\VC110.PDB
C:\USERS\USER\GIT\TERMPROJECTVS\TERMPROJECT\DEBUG\MOVIE.OBJ
^C:\USERS\USER\GIT\TERMPROJECTVS\TERMPROJECT\MOVIECONTROLLER.CPP
C:\USERS\USER\GIT\TERMPROJECTVS\TERMPROJECT\DEBUG\VC110.PDB
^C:\USERS\USER\GIT\TERMPROJECTVS\TERMPROJECT\MOVIEDECODER.CPP
C:\USERS\USER\GIT\TERMPROJECTVS\TERMPROJECT\DEBUG\VC110.PDB
C:\USERS\USER\GIT\TERMPROJECTVS\TERMPROJECT\DEBUG\MOVIEDECODER.OBJ
^C:\USERS\USER\GIT\TERMPROJECTVS\TERMPROJECT\VIEWCONTROLLER.CPP
C:\USERS\USER\GIT\TERMPROJECTVS\TERMPROJECT\DEBUG\VC110.PDB
^C:\USERS\USER\GIT\TERMPROJECTVS\TERMPROJECT\MAIN.CPP|C:\USERS\USER\GIT\TERMPROJECTVS\TERMPROJECT\MOVIE.CPP|C:\USERS\USER\GIT\TERMPROJECTVS\TERMPROJECT\MOVIECONTROLLER.CPP|C:\USERS\USER\GIT\TERMPROJECTVS\TERMPROJECT\MOVIEDECODER.CPP|C:\USERS\USER\GIT\TERMPROJECTVS\TERMPROJECT\VIEWCONTROLLER.CPP
C:\USERS\USER\GIT\TERMPROJECTVS\TERMPROJECT\DEBUG\MOVIE.OBJ
C:\USERS\USER\GIT\TERMPROJECTVS\TERMPROJECT\DEBUG\MAIN.OBJ
^C:\USERS\USER\GIT\TERMPROJECTVS\TERMPROJECT\DATE.CPP|C:\USERS\USER\GIT\TERMPROJECTVS\TERMPROJECT\MAIN.CPP|C:\USERS\USER\GIT\TERMPROJECTVS\TERMPROJECT\MOVIE.CPP|C:\USERS\USER\GIT\TERMPROJECTVS\TERMPROJECT\MOVIECONTROLLER.CPP|C:\USERS\USER\GIT\TERMPROJECTVS\TERMPROJECT\MOVIEDECODER.CPP|C:\USERS\USER\GIT\TERMPROJECTVS\TERMPROJECT\UTIL.CPP|C:\USERS\USER\GIT\TERMPROJECTVS\TERMPROJECT\VIEWCONTROLLER.CPP
C:\USERS\USER\GIT\TERMPROJECTVS\TERMPROJECT\DEBUG\MAIN.OBJ
C:\USERS\USER\GIT\TERMPROJECTVS\TERMPROJECT\DEBUG\MOVIEDECODER.OBJ
C:\USERS\USER\GIT\TERMPROJECTVS\TERMPROJECT\DEBUG\UTIL.OBJ
^C:\USERS\USER\GIT\TERMPROJECTVS\TERMPROJECT\UTIL.CPP
C:\USERS\USER\GIT\TERMPROJECTVS\TERMPROJECT\DEBUG\VC110.PDB
^C:\USERS\USER\GIT\TERMPROJECTVS\TERMPROJECT\DATE.CPP|C:\USERS\USER\GIT\TERMPROJECTVS\TERMPROJECT\MOVIEDECODER.CPP
C:\USERS\USER\GIT\TERMPROJECTVS\TERMPROJECT\DEBUG\DATE.OBJ
C:\USERS\USER\GIT\TERMPROJECTVS\TERMPROJECT\DEBUG\MOVIEDECODER.OBJ
^C:\USERS\USER\GIT\TERMPROJECTVS\TERMPROJECT\BYSTATUS.CPP|C:\USERS\USER\GIT\TERMPROJECTVS\TERMPROJECT\MAIN.CPP|C:\USERS\USER\GIT\TERMPROJECTVS\TERMPROJECT\MOVIEDECODER.CPP
C:\USERS\USER\GIT\TERMPROJECTVS\TERMPROJECT\DEBUG\BYSTATUS.OBJ
C:\USERS\USER\GIT\TERMPROJECTVS\TERMPROJECT\DEBUG\MAIN.OBJ
C:\USERS\USER\GIT\TERMPROJECTVS\TERMPROJECT\DEBUG\MOVIEDECODER.OBJ
^C:\USERS\USER\GIT\TERMPROJECTVS\TERMPROJECT\BYSTATUS.CPP
C:\USERS\USER\GIT\TERMPROJECTVS\TERMPROJECT\DEBUG\VC110.PDB
C:\USERS\USER\GIT\TERMPROJECTVS\TERMPROJECT\DEBUG\BYSTATUS.OBJ
^C:\USERS\USER\GIT\TERMPROJECTVS\TERMPROJECT\BYGENRE.CPP|C:\USERS\USER\GIT\TERMPROJECTVS\TERMPROJECT\DISPLAY.CPP|C:\USERS\USER\GIT\TERMPROJECTVS\TERMPROJECT\MAIN.CPP|C:\USERS\USER\GIT\TERMPROJECTVS\TERMPROJECT\MOVIECONTROLLER.CPP|C:\USERS\USER\GIT\TERMPROJECTVS\TERMPROJECT\VIEWCONTROLLER.CPP
C:\USERS\USER\GIT\TERMPROJECTVS\TERMPROJECT\DEBUG\BYGENRE.OBJ
C:\USERS\USER\GIT\TERMPROJECTVS\TERMPROJECT\DEBUG\DISPLAY.OBJ
C:\USERS\USER\GIT\TERMPROJECTVS\TERMPROJECT\DEBUG\MAIN.OBJ
C:\USERS\USER\GIT\TERMPROJECTVS\TERMPROJECT\DEBUG\VIEWCONTROLLER.OBJ
C:\USERS\USER\GIT\TERMPROJECTVS\TERMPROJECT\DEBUG\MOVIECONTROLLER.OBJ
^C:\USERS\USER\GIT\TERMPROJECTVS\TERMPROJECT\BYGENRE.CPP
C:\USERS\USER\GIT\TERMPROJECTVS\TERMPROJECT\DEBUG\VC110.PDB
^C:\USERS\USER\GIT\TERMPROJECTVS\TERMPROJECT\DISPLAY.CPP
C:\USERS\USER\GIT\TERMPROJECTVS\TERMPROJECT\DEBUG\VC110.PDB
^C:\USERS\USER\GIT\TERMPROJECTVS\TERMPROJECT\BYGENRE.CPP|C:\USERS\USER\GIT\TERMPROJECTVS\TERMPROJECT\MAIN.CPP|C:\USERS\USER\GIT\TERMPROJECTVS\TERMPROJECT\MOVIECONTROLLER.CPP
C:\USERS\USER\GIT\TERMPROJECTVS\TERMPROJECT\DEBUG\BYGENRE.OBJ
C:\USERS\USER\GIT\TERMPROJECTVS\TERMPROJECT\DEBUG\MOVIECONTROLLER.OBJ
C:\USERS\USER\GIT\TERMPROJECTVS\TERMPROJECT\DEBUG\MAIN.OBJ
^C:\USERS\USER\GIT\TERMPROJECTVS\TERMPROJECT\BYGENRE.CPP|C:\USERS\USER\GIT\TERMPROJECTVS\TERMPROJECT\BYSTATUS.CPP|C:\USERS\USER\GIT\TERMPROJECTVS\TERMPROJECT\MAIN.CPP|C:\USERS\USER\GIT\TERMPROJECTVS\TERMPROJECT\MOVIECONTROLLER.CPP
C:\USERS\USER\GIT\TERMPROJECTVS\TERMPROJECT\DEBUG\MOVIECONTROLLER.OBJ
C:\USERS\USER\GIT\TERMPROJECTVS\TERMPROJECT\DEBUG\MAIN.OBJ
^C:\USERS\USER\GIT\TERMPROJECTVS\TERMPROJECT\BYGENRE.CPP|C:\USERS\USER\GIT\TERMPROJECTVS\TERMPROJECT\BYSTATUS.CPP
C:\USERS\USER\GIT\TERMPROJECTVS\TERMPROJECT\DEBUG\BYGENRE.OBJ
