^C:\USERS\USER\DOCUMENTS\VISUAL STUDIO 2012\PROJECTS\TERMPROJECT\TERMPROJECT\DEBUG\MAIN.OBJ
/OUT:"C:\USERS\USER\DOCUMENTS\VISUAL STUDIO 2012\PROJECTS\TERMPROJECT\DEBUG\TERMPROJECT.EXE" /INCREMENTAL /NOLOGO kernel32.lib user32.lib gdi32.lib winspool.lib comdlg32.lib advapi32.lib shell32.lib ole32.lib oleaut32.lib uuid.lib odbc32.lib odbccp32.lib /MANIFEST /MANIFESTUAC:"level='asInvoker' uiAccess='false'" /manifest:embed /DEBUG /PDB:"C:\USERS\USER\DOCUMENTS\VISUAL STUDIO 2012\PROJECTS\TERMPROJECT\DEBUG\TERMPROJECT.PDB" /SUBSYSTEM:CONSOLE /TLBID:1 /DYNAMICBASE /NXCOMPAT /IMPLIB:"C:\USERS\USER\DOCUMENTS\VISUAL STUDIO 2012\PROJECTS\TERMPROJECT\DEBUG\TERMPROJECT.LIB" /MACHINE:X86 "DEBUG\MAIN.OBJ"
^C:\USERS\USER\DOCUMENTS\VISUAL STUDIO 2012\PROJECTS\TERMPROJECT\TERMPROJECT\DEBUG\DATE.OBJ|C:\USERS\USER\DOCUMENTS\VISUAL STUDIO 2012\PROJECTS\TERMPROJECT\TERMPROJECT\DEBUG\MAIN.OBJ|C:\USERS\USER\DOCUMENTS\VISUAL STUDIO 2012\PROJECTS\TERMPROJECT\TERMPROJECT\DEBUG\MOVIE.OBJ
/OUT:"C:\USERS\USER\DOCUMENTS\VISUAL STUDIO 2012\PROJECTS\TERMPROJECT\DEBUG\TERMPROJECT.EXE" /INCREMENTAL /NOLOGO kernel32.lib user32.lib gdi32.lib winspool.lib comdlg32.lib advapi32.lib shell32.lib ole32.lib oleaut32.lib uuid.lib odbc32.lib odbccp32.lib /MANIFEST /MANIFESTUAC:"level='asInvoker' uiAccess='false'" /manifest:embed /DEBUG /PDB:"C:\USERS\USER\DOCUMENTS\VISUAL STUDIO 2012\PROJECTS\TERMPROJECT\DEBUG\TERMPROJECT.PDB" /SUBSYSTEM:CONSOLE /TLBID:1 /DYNAMICBASE /NXCOMPAT /IMPLIB:"C:\USERS\USER\DOCUMENTS\VISUAL STUDIO 2012\PROJECTS\TERMPROJECT\DEBUG\TERMPROJECT.LIB" /MACHINE:X86 DEBUG\DATE.OBJ"DEBUG\MAIN.OBJ""DEBUG\MOVIE.OBJ"
^C:\USERS\USER\GIT\TERMPROJECTVS\TERMPROJECT\DEBUG\BYGENRE.OBJ|C:\USERS\USER\GIT\TERMPROJECTVS\TERMPROJECT\DEBUG\BYSTATUS.OBJ|C:\USERS\USER\GIT\TERMPROJECTVS\TERMPROJECT\DEBUG\DATE.OBJ|C:\USERS\USER\GIT\TERMPROJECTVS\TERMPROJECT\DEBUG\DISPLAY.OBJ|C:\USERS\USER\GIT\TERMPROJECTVS\TERMPROJECT\DEBUG\MAIN.OBJ|C:\USERS\USER\GIT\TERMPROJECTVS\TERMPROJECT\DEBUG\MOVIE.OBJ|C:\USERS\USER\GIT\TERMPROJECTVS\TERMPROJECT\DEBUG\MOVIECONTROLLER.OBJ|C:\USERS\USER\GIT\TERMPROJECTVS\TERMPROJECT\DEBUG\MOVIEDECODER.OBJ|C:\USERS\USER\GIT\TERMPROJECTVS\TERMPROJECT\DEBUG\UTIL.OBJ|C:\USERS\USER\GIT\TERMPROJECTVS\TERMPROJECT\DEBUG\VIEWCONTROLLER.OBJ
/OUT:"C:\USERS\USER\GIT\TERMPROJECTVS\DEBUG\TERMPROJECT.EXE" /INCREMENTAL /NOLOGO kernel32.lib user32.lib gdi32.lib winspool.lib comdlg32.lib advapi32.lib shell32.lib ole32.lib oleaut32.lib uuid.lib odbc32.lib odbccp32.lib /MANIFEST /MANIFESTUAC:"level='asInvoker' uiAccess='false'" /manifest:embed /DEBUG /PDB:"C:\USERS\USER\GIT\TERMPROJECTVS\DEBUG\TERMPROJECT.PDB" /SUBSYSTEM:CONSOLE /TLBID:1 /DYNAMICBASE /NXCOMPAT /IMPLIB:"C:\USERS\USER\GIT\TERMPROJECTVS\DEBUG\TERMPROJECT.LIB" /MACHINE:X86 DEBUG\BYGENRE.OBJDEBUG\BYSTATUS.OBJDEBUG\DATE.OBJ"DEBUG\DISPLAY.OBJ""DEBUG\MAIN.OBJ""DEBUG\MOVIE.OBJ""DEBUG\MOVIECONTROLLER.OBJ""DEBUG\MOVIEDECODER.OBJ""DEBUG\UTIL.OBJ""DEBUG\VIEWCONTROLLER.OBJ"
